Plotting · TimeSeries.jl
…
GitHub
Plotting
TimeSeries defines a recipe that allows plotting to a number of different plotting packages using the Plots.jl framework (no plotting packages will be automatically installed by TimeSeries).
Here we use the data from Yahoo Fiance as a demo.

using Plots, MarketData, TimeSeries
gr()
ta = yahoo(:GOOG, YahooOpt(; period1=now() - Month(1)))

21×6 TimeArray{Float64, 2, Date, Matrix{Float64}} 2025-10-17 to 2025-11-14
┌────────────┬─────────┬────────┬─────────┬────────┬──────────┬───────────┐
│            │ Open    │ High   │ Low     │ Close  │ AdjClose │ Volume    │
├────────────┼─────────┼────────┼─────────┼────────┼──────────┼───────────┤
│ 2025-10-17 │  251.35 │ 254.88 │  248.59 │ 253.79 │   253.79 │ 1.76538e7 │
│ 2025-10-20 │  255.23 │ 257.88 │   254.6 │ 257.02 │   257.02 │ 1.37268e7 │
│ 2025-10-21 │  255.25 │ 255.38 │  244.67 │ 251.34 │   251.34 │ 2.78364e7 │
│ 2025-10-22 │  255.01 │ 257.18 │ 250.451 │ 252.53 │   252.53 │ 1.96502e7 │
│ 2025-10-23 │   253.7 │ 255.86 │ 252.768 │ 253.73 │   253.73 │ 1.32413e7 │
│ 2025-10-24 │   257.3 │ 262.51 │   256.1 │ 260.51 │   260.51 │  1.8406e7 │
│ 2025-10-27 │  265.36 │  270.8 │  264.94 │ 269.93 │   269.93 │ 2.29877e7 │
│ 2025-10-28 │   270.2 │ 271.38 │  267.17 │ 268.43 │   268.43 │ 2.01012e7 │
│     ⋮      │    ⋮    │   ⋮    │    ⋮    │   ⋮    │    ⋮     │     ⋮     │
│ 2025-11-06 │ 285.735 │ 288.81 │  281.62 │ 285.34 │   285.34 │ 2.31038e7 │
│ 2025-11-07 │  284.21 │  284.5 │  275.74 │  279.7 │    279.7 │ 2.19911e7 │
│ 2025-11-10 │ 285.265 │ 291.46 │  283.54 │ 290.59 │   290.59 │ 1.95082e7 │
│ 2025-11-11 │   288.2 │ 292.34 │  287.88 │ 291.74 │   291.74 │ 1.41567e7 │
│ 2025-11-12 │ 292.085 │ 292.36 │  284.38 │ 287.43 │   287.43 │ 1.69988e7 │
│ 2025-11-13 │ 282.985 │ 283.51 │   278.0 │ 279.12 │   279.12 │ 1.80602e7 │
│ 2025-11-14 │ 271.895 │ 279.15 │  271.41 │ 276.98 │   276.98 │ 1.79539e7 │
└────────────┴─────────┴────────┴─────────┴────────┴──────────┴───────────┘
                                                             6 rows omitted
…
