Customize TimeArray printing · TimeSeries.jl
…
julia> using TimeSeries

julia> edit(joinpath(dirname(pathof(TimeSeries)), ".timeseriesrc.jl"))
DECIMALS
DECIMALS = 4
The default setting is 4. It shows values out to four decimal places:

julia> using TimeSeries
julia> using MarketData
julia> percentchange(cl)499×1 TimeArray{Float64, 1, Date, Vector{Float64}} 2000-01-04 to 2001-12-31
┌────────────┬────────────┐
│            │ Close      │
├────────────┼────────────┤
│ 2000-01-04 │ -0.0843309 │
│ 2000-01-05 │  0.0146341 │
│ 2000-01-06 │ -0.0865385 │
│ 2000-01-07 │  0.0473684 │
│ 2000-01-10 │ -0.0175879 │
│ 2000-01-11 │ -0.0511509 │
│ 2000-01-12 │ -0.0599461 │
│ 2000-01-13 │   0.109646 │
│     ⋮      │     ⋮      │
│ 2001-12-20 │ -0.0439408 │
│ 2001-12-21 │  0.0159652 │
│ 2001-12-24 │  0.0171429 │
│ 2001-12-26 │ 0.00608614 │
│ 2001-12-27 │  0.0269893 │
│ 2001-12-28 │  0.0163117 │
│ 2001-12-31 │ -0.0236291 │
└────────────┴────────────┘
           484 rows omitted
…
