Plotting · TimeSeries.jl
…
GitHub
Plotting
TimeSeries defines a recipe that allows plotting to a number of different plotting packages using the Plots.jl framework (no plotting packages will be automatically installed by TimeSeries).
Here we use the data from Yahoo Fiance as a demo.

using Plots, MarketData, TimeSeries
gr()
ta = yahoo(:GOOG, YahooOpt(period1 = now() - Month(1)))

22×6 TimeArray{Float64, 2, Date, Matrix{Float64}} 2023-10-23 to 2023-11-21
┌────────────┬────────┬─────────┬─────────┬────────┬──────────┬───────────┐
│            │ Open   │ High    │ Low     │ Close  │ AdjClose │ Volume    │
├────────────┼────────┼─────────┼─────────┼────────┼──────────┼───────────┤
│ 2023-10-23 │ 136.23 │  139.02 │  135.11 │  137.9 │    137.9 │ 2.07807e7 │
│ 2023-10-24 │ 139.16 │  140.71 │  138.75 │ 140.12 │   140.12 │ 2.65352e7 │
│ 2023-10-25 │ 129.77 │   130.1 │  126.09 │ 126.67 │   126.67 │ 5.87961e7 │
│ 2023-10-26 │ 124.47 │  125.46 │  122.32 │ 123.44 │   123.44 │ 3.39074e7 │
│ 2023-10-27 │ 124.03 │  124.44 │  121.46 │  123.4 │    123.4 │ 3.73677e7 │
│ 2023-10-30 │ 124.46 │  126.55 │  123.88 │ 125.75 │   125.75 │ 2.41656e7 │
│ 2023-10-31 │ 126.27 │  126.56 │ 123.925 │  125.3 │    125.3 │ 2.11234e7 │
│ 2023-11-01 │ 125.34 │  127.74 │ 124.925 │ 127.57 │   127.57 │ 2.65366e7 │
│ 2023-11-02 │ 129.56 │  130.09 │  128.11 │ 128.58 │   128.58 │ 2.40917e7 │
│ 2023-11-03 │ 129.09 │  130.73 │  129.01 │ 130.37 │   130.37 │ 1.95179e7 │
│ 2023-11-06 │ 130.22 │  131.56 │  129.93 │ 131.45 │   131.45 │ 1.53604e7 │
│ 2023-11-07 │ 131.98 │  133.28 │  131.14 │  132.4 │    132.4 │ 1.92238e7 │
│ 2023-11-08 │ 132.36 │  133.54 │  132.16 │ 133.26 │   133.26 │ 1.50936e7 │
│ 2023-11-09 │ 133.36 │  133.96 │  131.51 │ 131.69 │   131.69 │ 1.79765e7 │
│ 2023-11-10 │ 131.53 │  134.27 │  130.87 │ 134.06 │   134.06 │ 2.08729e7 │
│     ⋮      │   ⋮    │    ⋮    │    ⋮    │   ⋮    │    ⋮     │     ⋮     │
└────────────┴────────┴─────────┴─────────┴────────┴──────────┴───────────┘
                                                             7 rows omitted
…
