Plotting · TimeSeries.jl
…
GitHub
Plotting
TimeSeries defines a recipe that allows plotting to a number of different plotting packages using the Plots.jl framework (no plotting packages will be automatically installed by TimeSeries).
Here we use the data from Yahoo Fiance as a demo.

using Plots, MarketData, TimeSeries
gr()
ta = yahoo(:GOOG, YahooOpt(; period1=now() - Month(1)))

21×6 TimeArray{Float64, 2, Date, Matrix{Float64}} 2025-12-01 to 2025-12-30
┌────────────┬─────────┬─────────┬────────┬────────┬──────────┬───────────┐
│            │ Open    │ High    │ Low    │ Close  │ AdjClose │ Volume    │
├────────────┼─────────┼─────────┼────────┼────────┼──────────┼───────────┤
│ 2025-12-01 │ 317.475 │  319.63 │ 313.98 │ 315.12 │  314.915 │ 2.85206e7 │
│ 2025-12-02 │   316.9 │   318.6 │ 314.22 │ 316.02 │  315.814 │ 2.46682e7 │
│ 2025-12-03 │  316.03 │  322.04 │ 314.28 │ 320.62 │  320.411 │ 3.22851e7 │
│ 2025-12-04 │ 323.045 │ 323.099 │ 315.59 │ 318.39 │  318.182 │ 2.08316e7 │
│ 2025-12-05 │   320.0 │  323.83 │ 319.98 │ 322.09 │   321.88 │ 1.57199e7 │
│ 2025-12-08 │  321.03 │  321.23 │ 311.91 │ 314.45 │   314.45 │ 2.20069e7 │
│ 2025-12-09 │   313.1 │ 318.709 │ 312.62 │ 317.75 │   317.75 │ 1.41513e7 │
│ 2025-12-10 │  316.62 │  321.87 │  315.4 │  321.0 │    321.0 │ 2.27645e7 │
│     ⋮      │    ⋮    │    ⋮    │   ⋮    │   ⋮    │    ⋮     │     ⋮     │
│ 2025-12-19 │  303.27 │  308.99 │ 302.34 │ 308.61 │   308.61 │ 4.52344e7 │
│ 2025-12-22 │ 311.225 │   311.7 │ 306.59 │ 311.33 │   311.33 │ 1.40914e7 │
│ 2025-12-23 │ 311.135 │   316.3 │ 310.75 │ 315.68 │   315.68 │ 1.39614e7 │
│ 2025-12-24 │  316.15 │  316.29 │ 313.32 │ 315.67 │   315.67 │  6.1382e6 │
│ 2025-12-26 │  315.92 │  316.56 │ 313.72 │ 314.96 │   314.96 │  6.7309e6 │
│ 2025-12-29 │  312.82 │  314.97 │  311.9 │ 314.39 │   314.39 │ 1.23177e7 │
│ 2025-12-30 │   313.6 │   317.7 │ 313.25 │ 314.55 │   314.55 │ 1.04065e7 │
└────────────┴─────────┴─────────┴────────┴────────┴──────────┴───────────┘
                                                             6 rows omitted
…
