Combine methods · TimeSeries.jl
…
Showing this code in REPL:

julia> using TimeSeries
julia> using MarketData
julia> collapse(cl, month, last)24×1 TimeArray{Float64, 1, Date, Vector{Float64}} 2000-01-31 to 2001-12-31
┌────────────┬────────┐
│            │ Close  │
├────────────┼────────┤
│ 2000-01-31 │ 103.75 │
│ 2000-02-29 │ 114.62 │
│ 2000-03-31 │ 135.81 │
│ 2000-04-28 │ 124.06 │
│ 2000-05-31 │   84.0 │
│ 2000-06-30 │  52.38 │
│ 2000-07-31 │  50.81 │
│ 2000-08-31 │  60.94 │
│     ⋮      │   ⋮    │
│ 2001-06-29 │  23.25 │
│ 2001-07-31 │  18.79 │
│ 2001-08-31 │  18.55 │
│ 2001-09-28 │  15.51 │
│ 2001-10-31 │  17.56 │
│ 2001-11-30 │   21.3 │
│ 2001-12-31 │   21.9 │
└────────────┴────────┘
         9 rows omitted
We can also supply the function that chooses the timestamp and the function that determines the corresponding value independently:

julia> using Statistics
julia> collapse(cl, month, last, mean)24×1 TimeArray{Float64, 1, Date, Vector{Float64}} 2000-01-31 to 2001-12-31
┌────────────┬─────────┐
│            │ Close   │
├────────────┼─────────┤
│ 2000-01-31 │ 103.359 │
│ 2000-02-29 │ 111.638 │
│ 2000-03-31 │ 128.503 │
│ 2000-04-28 │ 123.106 │
│ 2000-05-31 │  100.81 │
│ 2000-06-30 │ 78.8891 │
│ 2000-07-31 │ 53.7585 │
│ 2000-08-31 │ 51.3122 │
│     ⋮      │    ⋮    │
│ 2001-06-29 │  21.531 │
│ 2001-07-31 │ 21.4624 │
│ 2001-08-31 │ 18.6465 │
│ 2001-09-28 │  16.602 │
│ 2001-10-31 │ 17.3222 │
│ 2001-11-30 │  19.649 │
│ 2001-12-31 │  21.695 │
└────────────┴─────────┘
          9 rows omitted
…
