Plotting · TimeSeries.jl
…
GitHub
Plotting
TimeSeries defines a recipe that allows plotting to a number of different plotting packages using the Plots.jl framework (no plotting packages will be automatically installed by TimeSeries).
Here we use the data from Yahoo Fiance as a demo.

using Plots, MarketData, TimeSeries
gr()
ta = yahoo(:GOOG, YahooOpt(period1 = now() - Month(1)))

21×6 TimeArray{Float64, 2, Date, Matrix{Float64}} 2023-11-07 to 2023-12-06
┌────────────┬─────────┬─────────┬─────────┬────────┬──────────┬───────────┐
│            │ Open    │ High    │ Low     │ Close  │ AdjClose │ Volume    │
├────────────┼─────────┼─────────┼─────────┼────────┼──────────┼───────────┤
│ 2023-11-07 │  131.98 │  133.28 │  131.14 │  132.4 │    132.4 │ 1.92238e7 │
│ 2023-11-08 │  132.36 │  133.54 │  132.16 │ 133.26 │   133.26 │ 1.50936e7 │
│ 2023-11-09 │  133.36 │  133.96 │  131.51 │ 131.69 │   131.69 │ 1.79765e7 │
│ 2023-11-10 │  131.53 │  134.27 │  130.87 │ 134.06 │   134.06 │ 2.08729e7 │
│ 2023-11-13 │  133.36 │  134.11 │  132.77 │ 133.64 │   133.64 │ 1.64099e7 │
│ 2023-11-14 │  135.65 │  137.24 │   135.1 │ 135.43 │   135.43 │ 2.23173e7 │
│ 2023-11-15 │  136.64 │  136.84 │  135.33 │ 136.38 │   136.38 │ 1.58409e7 │
│ 2023-11-16 │  136.96 │  138.88 │  136.08 │  138.7 │    138.7 │ 1.76151e7 │
│     ⋮      │    ⋮    │    ⋮    │    ⋮    │   ⋮    │    ⋮     │     ⋮     │
│ 2023-11-28 │  137.63 │  138.66 │  137.04 │ 138.62 │   138.62 │ 1.70469e7 │
│ 2023-11-29 │ 138.985 │  139.67 │ 136.295 │  136.4 │    136.4 │ 2.10147e7 │
│ 2023-11-30 │   136.4 │  136.96 │  132.79 │ 133.92 │   133.92 │ 2.99135e7 │
│ 2023-12-01 │  133.32 │   133.5 │ 132.152 │ 133.32 │   133.32 │ 2.42584e7 │
│ 2023-12-04 │ 131.294 │  131.45 │   129.4 │ 130.63 │   130.63 │ 2.41171e7 │
│ 2023-12-05 │  130.37 │  133.54 │  129.73 │ 132.39 │   132.39 │ 1.92351e7 │
│ 2023-12-06 │   132.9 │ 133.305 │  131.31 │ 131.43 │   131.43 │ 1.56939e7 │
└────────────┴─────────┴─────────┴─────────┴────────┴──────────┴───────────┘
                                                              6 rows omitted
…
