Plotting · TimeSeries.jl
…
GitHub
Plotting
TimeSeries defines a recipe that allows plotting to a number of different plotting packages using the Plots.jl framework (no plotting packages will be automatically installed by TimeSeries).
Here we use the data from Yahoo Fiance as a demo.

using Plots, MarketData, TimeSeries
gr()
ta = yahoo(:GOOG, YahooOpt(period1 = now() - Month(1)))

20×6 TimeArray{Float64, 2, Date, Matrix{Float64}} 2024-03-25 to 2024-04-22
┌────────────┬─────────┬─────────┬─────────┬────────┬──────────┬───────────┐
│            │ Open    │ High    │ Low     │ Close  │ AdjClose │ Volume    │
├────────────┼─────────┼─────────┼─────────┼────────┼──────────┼───────────┤
│ 2024-03-25 │  150.95 │ 151.456 │   148.8 │ 151.15 │   151.15 │ 1.51147e7 │
│ 2024-03-26 │  151.24 │   153.2 │  151.03 │  151.7 │    151.7 │ 1.93127e7 │
│ 2024-03-27 │ 152.145 │  152.69 │  150.13 │ 151.94 │   151.94 │  1.6622e7 │
│ 2024-03-28 │   152.0 │  152.67 │  151.33 │ 152.26 │   152.26 │ 2.11056e7 │
│ 2024-04-01 │  151.83 │   157.0 │  151.65 │  156.5 │    156.5 │ 2.44698e7 │
│ 2024-04-02 │  154.75 │  155.99 │  153.46 │ 155.87 │   155.87 │ 1.75981e7 │
│ 2024-04-03 │  154.92 │  156.55 │ 154.132 │ 156.37 │   156.37 │ 1.72662e7 │
│ 2024-04-04 │  155.08 │  156.18 │  151.88 │ 151.94 │   151.94 │ 2.41848e7 │
│     ⋮      │    ⋮    │    ⋮    │    ⋮    │   ⋮    │    ⋮     │     ⋮     │
│ 2024-04-12 │ 159.405 │   161.7 │   158.6 │ 159.19 │   159.19 │ 1.69682e7 │
│ 2024-04-15 │  160.28 │  160.83 │  156.15 │ 156.33 │   156.33 │ 2.11409e7 │
│ 2024-04-16 │  155.64 │  157.23 │  155.05 │  156.0 │    156.0 │ 1.54132e7 │
│ 2024-04-17 │  157.19 │ 158.681 │ 156.135 │ 156.88 │   156.88 │ 1.62378e7 │
│ 2024-04-18 │ 156.925 │ 158.485 │  156.21 │ 157.46 │   157.46 │ 1.40161e7 │
│ 2024-04-19 │  157.75 │  157.99 │  153.91 │ 155.72 │   155.72 │ 2.00639e7 │
│ 2024-04-22 │  156.01 │ 159.185 │  155.66 │ 157.95 │   157.95 │  1.5338e7 │
└────────────┴─────────┴─────────┴─────────┴────────┴──────────┴───────────┘
                                                              5 rows omitted
…
