Tables.jl Interface Integration · TimeSeries.jl
…
julia> df′ = DataFrames.rename(df, :timestamp => :A);
julia> first(df′)DataFrameRow
 Row │ A           Open     High     Low      Close
     │ Date        Float64  Float64  Float64  Float64
─────┼────────────────────────────────────────────────
   1 │ 2000-01-03   104.88    112.5   101.69   111.94
julia> TimeArray(df′; timestamp=:A)500×4 TimeArray{Float64, 2, Date, Matrix{Float64}} 2000-01-03 to 2001-12-31
┌────────────┬────────┬────────┬────────┬────────┐
│            │ Open   │ High   │ Low    │ Close  │
├────────────┼────────┼────────┼────────┼────────┤
│ 2000-01-03 │ 104.88 │  112.5 │ 101.69 │ 111.94 │
│ 2000-01-04 │ 108.25 │ 110.62 │ 101.19 │  102.5 │
│ 2000-01-05 │ 103.75 │ 110.56 │  103.0 │  104.0 │
│ 2000-01-06 │ 106.12 │  107.0 │   95.0 │   95.0 │
│ 2000-01-07 │   96.5 │  101.0 │   95.5 │   99.5 │
│ 2000-01-10 │  102.0 │ 102.25 │  94.75 │  97.75 │
│ 2000-01-11 │  95.94 │  99.38 │   90.5 │  92.75 │
│ 2000-01-12 │   95.0 │   95.5 │   86.5 │  87.19 │
│     ⋮      │   ⋮    │   ⋮    │   ⋮    │   ⋮    │
│ 2001-12-20 │   21.4 │  21.47 │  20.62 │  20.67 │
│ 2001-12-21 │  21.01 │  21.54 │   20.8 │   21.0 │
│ 2001-12-24 │   20.9 │  21.45 │   20.9 │  21.36 │
│ 2001-12-26 │  21.35 │   22.3 │  21.14 │  21.49 │
│ 2001-12-27 │  21.58 │  22.25 │  21.58 │  22.07 │
│ 2001-12-28 │  21.97 │   23.0 │  21.96 │  22.43 │
│ 2001-12-31 │  22.51 │  22.66 │  21.83 │   21.9 │
└────────────┴────────┴────────┴────────┴────────┘
                                  485 rows omitted
…
